--- Ejercicio 16
library ieee;
use ieee.std_Logic_1164.all;

entity decodificadorbcd is
port(dec: in std_logic_vector(3 downto 0):
seg:out std_logic_vector(6 downto 0);
end decodificadorbcd;

architecture ejemplobcd of decodificadorbcd is
begin 
with  dec select
--- analizar abdcefg

seg <= '0000000' when '0000'
       '1001111' when '0001'
       '0010010' when '0010'
       '0000110' when '0011'
       '1001100' when '0100'
       '0100100' when '0101'
       '1100000' when '0110'
       '0001110' when '0111'
       '0000000' when '1000'
       '0000100' when '1001'
     

end ejemplobcd;